Get Salaries — get_salaries • tv
…
#> Getting 'monthly' salary table for 'tv-l' ('west') for year 2009 ... ok. (1.02s) 
#> Getting 'monthly' salary table for 'tv-l' ('west') for year 2010 ... ok. (0.90s) 
#> Getting 'monthly' salary table for 'tv-l' ('west') for year 2011 ... ok. (0.89s) 
#> Getting 'monthly' salary table for 'tv-l' ('west') for year 2012 ... ok. (0.91s) 
#> Getting 'monthly' salary table for 'tv-l' ('west') for year 2013 ... ok. (0.91s) 
#> Getting 'monthly' salary table for 'tv-l' ('west') for year 2014 ... ok. (0.91s) 
#> Getting 'monthly' salary table for 'tv-l' ('west') for year 2015 ... ok. (0.86s) 
#> Getting 'monthly' salary table for 'tv-l' ('west') for year 2016 ... ok. (0.91s) 
#> Getting 'monthly' salary table for 'tv-l' ('west') for year 2017 ... ok. (0.92s) 
#> Getting 'monthly' salary table for 'tv-l' ('west') for year 2018 ... ok. (0.92s) 
#> Getting 'monthly' salary table for 'tv-l' ('west') for year 2019 ... ok. (0.95s) 
#> Getting 'monthly' salary table for 'tv-l' ('west') for year 2020 ... ok. (0.92s) 
#> Getting 'monthly' salary table for 'tv-l' ('west') for year 2021 ... ok. (0.95s) 
salaries
#> # A tibble: 1,542 × 10
#>    pay_group  step salar…¹ union…² unit  title area   year date_from  date_to   
#>    <chr>     <int>   <dbl> <chr>   <chr> <chr> <chr> <int> <date>     <date>    
#>  1 E 1           1      NA tv-l    €     Entg… west   2008 2008-01-01 2009-02-28
#>  2 E 1           2    1325 tv-l    €     Entg… west   2008 2008-01-01 2009-02-28
#>  3 E 1           3    1350 tv-l    €     Entg… west   2008 2008-01-01 2009-02-28
#>  4 E 1           4    1380 tv-l    €     Entg… west   2008 2008-01-01 2009-02-28
#>  5 E 1           5    1410 tv-l    €     Entg… west   2008 2008-01-01 2009-02-28
#>  6 E 1           6    1485 tv-l    €     Entg… west   2008 2008-01-01 2009-02-28
#>  7 E 2           1    1495 tv-l    €     Entg… west   2008 2008-01-01 2009-02-28
#>  8 E 2           2    1660 tv-l    €     Entg… west   2008 2008-01-01 2009-02-28
#>  9 E 2           3    1710 tv-l    €     Entg… west   2008 2008-01-01 2009-02-28
#> 10 E 2           4    1760 tv-l    €     Entg… west   2008 2008-01-01 2009-02-28
#> # … with 1,532 more rows, and abbreviated variable names ¹​salary_monthly,
#> #   ²​union_rate
…
